Testbench/SystemVerilog/adder/adder.vcd
$date
	Mon Mar 22 21:11:25 2021
$end
$version
	QuestaSim Version 2020.1_1
$end
$timescale
	1ps
$end

$scope module adder_tb $end
$var parameter 32 ! period $end
$var reg 1 " clk $end

$scope module DUT $end
$var parameter 32 # WIDTH $end
$var wire 1 $ clk $end
$var wire 1 % rst $end
$var wire 1 & dataIn $end
$var wire 1 ' opA [31] $end
$var wire 1 ( opA [30] $end
$var wire 1 ) opA [29] $end
$var wire 1 * opA [28] $end
$var wire 1 + opA [27] $end
$var wire 1 , opA [26] $end
$var wire 1 - opA [25] $end
$var wire 1 . opA [24] $end
$var wire 1 / opA [23] $end
$var wire 1 0 opA [22] $end
$var wire 1 1 opA [21] $end
$var wire 1 2 opA [20] $end
$var wire 1 3 opA [19] $end
$var wire 1 4 opA [18] $end
$var wire 1 5 opA [17] $end
$var wire 1 6 opA [16] $end
$var wire 1 7 opA [15] $end
$var wire 1 8 opA [14] $end
$var wire 1 9 opA [13] $end
$var wire 1 : opA [12] $end
$var wire 1 ; opA [11] $end
$var wire 1 < opA [10] $end
$var wire 1 = opA [9] $end
$var wire 1 > opA [8] $end
$var wire 1 ? opA [7] $end
$var wire 1 @ opA [6] $end
$var wire 1 A opA [5] $end
$var wire 1 B opA [4] $end
$var wire 1 C opA [3] $end
$var wire 1 D opA [2] $end
$var wire 1 E opA [1] $end
$var wire 1 F opA [0] $end
$var wire 1 G opB [31] $end
$var wire 1 H opB [30] $end
$var wire 1 I opB [29] $end
$var wire 1 J opB [28] $end
$var wire 1 K opB [27] $end
$var wire 1 L opB [26] $end
$var wire 1 M opB [25] $end
$var wire 1 N opB [24] $end
$var wire 1 O opB [23] $end
$var wire 1 P opB [22] $end
$var wire 1 Q opB [21] $end
$var wire 1 R opB [20] $end
$var wire 1 S opB [19] $end
$var wire 1 T opB [18] $end
$var wire 1 U opB [17] $end
$var wire 1 V opB [16] $end
$var wire 1 W opB [15] $end
$var wire 1 X opB [14] $end
$var wire 1 Y opB [13] $end
$var wire 1 Z opB [12] $end
$var wire 1 [ opB [11] $end
$var wire 1 \ opB [10] $end
$var wire 1 ] opB [9] $end
$var wire 1 ^ opB [8] $end
$var wire 1 _ opB [7] $end
$var wire 1 ` opB [6] $end
$var wire 1 a opB [5] $end
$var wire 1 b opB [4] $end
$var wire 1 c opB [3] $end
$var wire 1 d opB [2] $end
$var wire 1 e opB [1] $end
$var wire 1 f opB [0] $end
$var reg 65 g result [64:0] $end
$upscope $end
$upscope $end

$scope begin testbench_sv_unit $end
$var parameter 32 h WIDTH $end
$var parameter 32 i DEBUG $end
$upscope $end

$scope begin std $end
$upscope $end
$enddefinitions $end
#0
$dumpvars
0"
bx g
b100000 h
b0 i
b10 !
b100000 #
xf
xe
xd
xc
xb
xa
x`
x_
x^
x]
x\
x[
xZ
xY
xX
xW
xV
xU
xT
xS
xR
xQ
xP
xO
xN
xM
xL
xK
xJ
xI
xH
xG
xF
xE
xD
xC
xB
xA
x@
x?
x>
x=
x<
x;
x:
x9
x8
x7
x6
x5
x4
x3
x2
x1
x0
x/
x.
x-
x,
x+
x*
x)
x(
x'
x&
x%
0$
$end
#1000
1"
1$
1&
1f
1e
0d
1c
0b
0a
1`
1_
1^
1]
1\
0[
1Z
0Y
1X
1W
1V
0U
0T
1S
1R
0Q
1P
1O
0N
0M
0L
0K
1J
1I
0H
1G
0F
0E
1D
0C
0B
1A
1@
1?
0>
0=
1<
1;
0:
09
18
07
06
05
14
03
12
11
10
0/
1.
1-
0,
1+
1*
1)
1(
1'
0%
b110101100010011100010010010101111 g
#2000
0"
0$
#3000
1"
1$
#4000
0"
0$
#5000
1"
1$
0&
0f
0c
0`
0_
0^
1T
0S
0R
0P
0O
1M
1K
0J
0I
0G
1E
1C
1B
0?
1=
0<
0;
1:
17
16
02
01
0-
1,
0(
#6000
0"
0$
#7000
1"
1$
#8000
0"
0$
#9000
1"
1$
1&
1f
1d
1_
0Z
0W
1S
1Q
1O
1N
1L
0K
1J
1I
1G
0C
0B
0A
1?
1>
0=
1;
19
08
07
15
13
12
0+
0*
1(
0'
#10000
0"
0$
#11000
1"
1$
b100011101000011001000000001001101 g
#12000
0"
0$
#13000
1"
1$
0&
0e
1c
1a
0_
0\
1W
0V
1U
0T
0S
1R
0Q
1P
0O
1K
0J
0I
0E
0D
1C
1A
0@
1=
1<
0;
09
18
06
02
11
00
0.
0,
1+
1*
1%
b0 g
#14000
0"
0$
#15000
1"
1$
#16000
0"
0$
#17000
1"
1$
1e
0a
1`
1_
1^
1\
1[
1Z
1T
1S
0N
0L
1H
1D
1B
0A
0>
0=
19
05
04
1/
1.
1,
0+
0(
#18000
0"
0$
#19000
1"
1$
#20000
0"
0$
#21000
1"
1$
0e
0d
0c
1b
0_
0]
0[
1Y
1V
0U
0T
0M
1L
0G
0C
1@
1>
0:
08
03
01
0.
1+
0*
0)
1'
0%
#22000
0"
0$
#23000
1"
1$
#24000
0"
0$
#25000
1"
1$
0`
0^
0\
1[
0Y
1T
1Q
1M
0K
1J
1I
0H
1E
0D
1C
1A
0>
1=
09
18
16
14
13
10
0/
1-
0+
1*
0'
1%
#26000
0"
0$
#27000
1"
1$
#28000
0"
0$
#29000
1"
1$
1&
0b
1a
1`
1]
1\
0[
0Z
0X
0W
1U
0T
0S
0R
1O
1N
0L
0J
0@
1:
19
08
17
06
15
04
12
11
1/
1.
0-
1+
0*
1(
0%
b1110001110111011011110100011011 g
#30000
0"
0$
#31000
1"
1$
#32000
0"
0$
#33000
1"
1$
1d
0a
0`
1_
1^
0]
1Y
1W
0U
0O
0N
1L
1K
0I
1G
1D
0B
0A
1@
1>
09
18
07
16
05
14
03
02
0,
0+
1*
1%
b0 g
#34000
0"
0$
#35000
1"
1$
#36000
0"
0$
#37000
1"
1$
1c
1a
0_
0^
0\
0Y
1X
0W
0M
1I
0G
1F
0D
0C
1A
0?
0>
0=
0<
1;
0:
17
04
13
12
01
00
0/
0.
1-
1,
1+
0*
0%
b1111010011110110000100010010000 g
#38000
0"
0$
#39000
1"
1$
#40000
0"
0$
#41000
1"
1$
1e
0c
0a
1`
1_
1^
1]
0X
1T
1S
0P
1O
1N
0L
1J
0I
1G
0F
0E
1D
1B
0;
1:
08
07
15
14
02
11
1/
0-
0+
1)
1'
1%
b0 g
#42000
0"
0$
#43000
1"
1$
#44000
0"
0$
#45000
1"
1$
0&
0f
0d
1b
0`
0_
1[
1Y
1W
0V
1U
0T
1R
0Q
0N
1M
1L
0K
1I
1C
0B
0A
0@
1>
1=
1;
0:
19
17
06
05
03
12
1.
1-
0)
0(
0%
#46000
0"
0$
#47000
1"
1$
#48000
0"
0$
#49000
1"
1$
0e
1a
1`
1_
0^
0]
1\
0Y
1X
0R
1Q
1P
0M
1K
0G
1E
1B
1A
1@
1?
0>
0=
1<
0;
09
18
07
04
13
01
0/
0.
0,
1+
1*
1(
0'
#50000
0"
0$
#51000
1"
1$
#52000
0"
0$
#53000
1"
1$
1&
0a
0`
1^
0\
0[
0X
1V
0U
1R
0Q
0P
0L
0K
0J
0I
1G
0E
0B
1=
1;
19
08
17
03
02
1.
0-
0*
1)
1'
#54000
0"
0$
#55000
1"
1$
b101101001100110100011000001111100 g
#56000
0"
0$
#57000
1"
1$
1f
1e
1a
0^
1X
0W
0V
1T
0S
1Q
1P
1N
1L
1I
1H
0G
1E
0C
1B
0@
0?
0<
0;
09
18
07
12
1/
1,
1*
0'
1%
b0 g
#58000
0"
0$
#59000
1"
1$
#60000
0"
0$
#61000
1"
1$
0f
0e
1c
0a
1`
1^
1\
1[
1Z
1W
1V
1U
1S
0Q
0P
0N
1K
1J
0I
0H
0E
0D
0B
0A
1?
1>
0=
1<
1;
14
13
1-
0+
0(
#62000
0"
0$
#63000
1"
1$
#64000
0"
0$
#65000
1"
1$
0&
1f
1e
0c
0b
0`
1]
0Z
0X
0V
0U
0T
0S
1P
0O
1M
0L
0K
0J
1H
1G
1F
1E
1D
1@
0?
0<
0;
17
15
11
0/
0.
0,
1+
1(
1'
#66000
0"
0$
#67000
1"
1$
#68000
0"
0$
#69000
1"
1$
0f
0e
1a
0_
0^
1X
0W
1U
1Q
1N
0M
1L
1J
1I
0H
0D
1C
1B
1A
0@
1?
1:
19
07
16
05
04
03
01
0-
1,
0+
0*
0'
#70000
0"
0$
#71000
1"
1$
#72000
0"
0$
#73000
1"
1$
1&
1f
1d
1c
1b
1`
0\
0[
1Z
0X
1W
1V
0U
1T
1S
0R
0Q
0P
0N
1M
1K
0I
1H
0G
0F
1D
1@
0?
0>
1=
1<
0:
08
06
14
13
10
1/
1.
1-
0)
0(
1'
0%
b11100101111010011011100011111011 g
#74000
0"
0$
#75000
1"
1$
#76000
0"
0$
#77000
1"
1$
1e
0d
0c
0`
1_
0]
1\
1Y
1X
0W
0V
1U
0T
1R
1Q
1O
0J
1G
1F
0E
1?
1>
0=
09
16
15
00
0/
1*
1)
0'
1%
b0 g
#78000
0"
0$
#79000
1"
1$
#80000
0"
0$
#81000
1"
1$
1d
0a
1`
0_
1]
0\
0Z
0S
1P
0L
0K
1J
1I
0F
0D
0C
0B
0A
0@
0<
1;
1:
19
06
04
03
02
0.
0-
0,
1+
0*
0)
1'
#82000
0"
0$
#83000
1"
1$
#84000
0"
0$
#85000
1"
1$
0f
0e
1c
0`
1_
1^
0]
1\
0Y
0X
1W
1V
0U
1T
1S
0R
0P
0O
1K
0I
0G
1F
1A
1@
0>
0:
17
05
14
13
12
11
1/
1-
#86000
0"
0$
#87000
1"
1$
#88000
0"
0$
#89000
1"
1$
0b
1a
1`
0_
0^
1]
0\
0W
0T
0Q
1P
1L
0J
1I
0H
1G
1D
1C
0A
0?
1=
1<
0;
07
16
04
02
10
0/
1.
1,
1*
1)
1(
0'
0%
b100101101101100100010100010111001 g
#90000
0"
0$
#91000
1"
1$
#92000
0"
0$
#93000
1"
1$
1f
0a
0`
1^
0]
1\
1[
0V
0S
1R
1Q
1N
0L
1J
0I
0F
0@
0=
09
18
06
03
00
1/
0-
0)
#94000
0"
0$
#95000
1"
1$
b11111001000100000101000100011001 g
#96000
0"
0$
#97000
1"
1$
1e
0d
1b
1a
1_
0\
0[
1V
1T
0R
0Q
0P
1O
1L
0K
1H
0G
1F
1E
1>
1=
0<
1:
08
17
1-
0,
0+
0(
1'
#98000
0"
0$
#99000
1"
1$
b11101011001001011001010011001010 g
#100000
0"
0$
#101000
1"
1$
0&
0f
1d
1[
1Z
1W
1U
0T
1R
1Q
0O
0M
0L
0J
1I
0D
1?
0=
1<
1;
0:
19
18
07
15
14
13
12
0/
0.
1+
0*
1)
1(
0'
1%
b0 g
#102000
0"
0$
#103000
1"
1$
#104000
0"
0$
#105000
1"
1$
1&
1f
0e
0d
0b
0a
0_
1]
1\
0[
1X
0U
1T
0R
1O
1J
0I
0H
1G
0C
1@
0?
0>
1=
08
16
03
01
1/
0+
0%
b11110100001111010000010101001100 g
#106000
0"
0$
#107000
1"
1$
#108000
0"
0$
#109000
1"
1$
0f
0c
1b
1a
1_
0^
0]
0\
1[
0Z
0T
1S
1R
0Q
1P
0N
0J
0G
0F
1A
0@
1:
18
17
06
04
02
11
0-
0(
1'
#110000
0"
0$
#111000
1"
1$
b10100001011111001100011011010010 g
#112000
0"
0$
#113000
1"
1$
1c
0a
1\
0[
0X
1U
1T
0S
0R
0P
0O
1L
1J
1I
1G
1F
1D
1C
0A
1@
1?
1>
09
08
07
16
05
14
13
12
0)
0'
1%
b0 g
#114000
0"
0$
#115000
1"
1$
#116000
0"
0$
#117000
1"
1$
1e
0c
0b
1`
1]
0\
1[
1Z
1Y
1X
0W
0V
0U
1S
1R
1Q
1P
1O
0I
1H
0G
0F
0E
0D
0C
1B
1A
0@
0?
0=
0<
0;
0:
19
02
1+
0%
b1011101101010011001101111110010 g
#118000
0"
0$
#119000
1"
1$
#120000
0"
0$
#121000
1"
1$
0&
1d
1c
1^
0]
0[
0Z
1W
0T
0S
0Q
0P
0O
0L
1K
1I
0H
1G
1D
0B
1?
1<
1:
09
18
15
12
01
1,
1(
1%
b0 g
#122000
0"
0$
#123000
1"
1$
#124000
0"
0$
#125000
1"
1$
1&
0d
0c
1b
0`
1[
0Y
0X
0W
1U
0R
1Q
1N
1M
0K
0J
1F
1C
1B
0A
0>
1=
0:
08
17
06
05
03
10
1-
0,
1)
1'
0%
b110001101111101101001000000101111 g
#126000
0"
0$
#127000
1"
1$
#128000
0"
0$
#129000
1"
1$
1f
0e
1c
0_
0^
0[
1X
1P
0M
1J
0I
1H
0G
1E
1@
0?
1>
16
15
04
13
02
0/
0-
1,
0+
1*
#130000
0"
0$
#131000
1"
1$
b101000101101011011100011101111000 g
#132000
0"
0$
#133000
1"
1$
0&
0f
1e
0c
0b
1a
1`
1_
1^
1Z
1Y
1W
0U
1S
0P
1K
0J
1I
1G
0E
0B
1A
0@
0>
19
14
11
00
1/
1.
1+
0(
0'
1%
b0 g
#134000
0"
0$
#135000
1"
1$
#136000
0"
0$
#137000
1"
1$
1&
1c
0W
1U
0S
1R
0Q
1P
1O
1J
0I
0H
0G
0F
0C
1B
0A
1?
0=
1;
06
10
1-
0+
0*
1'
#138000
0"
0$
#139000
1"
1$
#140000
0"
0$
#141000
1"
1$
0&
1d
1]
1\
1[
0Z
1S
0R
1Q
0P
1M
0J
1G
1F
0D
1C
1:
09
18
16
05
04
03
12
01
0.
0,
1*
0'
0%
#142000
0"
0$
#143000
1"
1$
#144000
0"
0$
#145000
1"
1$
1f
0e
0`
0_
0^
0]
0[
0Y
1W
1V
0U
1T
0S
1R
0Q
0O
1L
0K
1J
1I
1H
0G
0F
0C
1A
0?
1>
0:
19
08
07
06
14
11
00
0/
1.
1+
0*
1(
1%
#146000
0"
0$
#147000
1"
1$
#148000
0"
0$
#149000
1"
1$
0f
1e
0d
0c
0a
1`
1_
1]
1Z
1Y
0X
0T
1S
1Q
1P
1O
0N
0M
0J
0I
1G
1E
1D
0B
0A
1?
0<
17
16
15
04
13
02
1/
0.
0+
0)
0(
1'
0%
#150000
0"
0$
#151000
1"
1$
#152000
0"
0$
#153000
1"
1$
1d
1c
0`
0_
0\
1X
0V
1U
0O
1N
1J
1I
0G
0D
1B
1A
0>
1=
1<
18
06
14
10
0-
1*
1)
1(
#154000
0"
0$
#155000
1"
1$
#156000
0"
0$
#157000
1"
1$
1f
0d
0c
1`
1\
0W
0U
0Q
0P
0L
1K
0J
1G
1F
1@
1>
0=
0;
1:
09
03
12
00
0/
1.
1-
1,
0)
0(
0'
#158000
0"
0$
#159000
1"
1$
#160000
0"
0$
#161000
1"
1$
0f
1c
1a
1^
0]
0\
0Y
1W
1V
0R
1P
1O
1M
1L
1J
0H
0G
1C
0B
1=
1;
19
08
07
16
04
13
01
0-
0,
1+
1'
#162000
0"
0$
#163000
1"
1$
#164000
0"
0$
#165000
1"
1$
1f
0e
1d
1b
0a
0`
0^
1]
1\
1Y
0W
1U
1T
0S
1R
0P
0O
0I
0F
1D
0C
0?
0>
0=
0;
09
18
17
06
05
14
02
1/
1-
0*
0'
#166000
0"
0$
#167000
1"
1$
#168000
0"
0$
#169000
1"
1$
1&
1e
0d
0b
1a
1_
1^
0]
0Y
1W
0V
1S
0R
1Q
1O
0N
0M
0J
1I
1F
0@
1?
1>
0<
1;
0:
19
07
16
04
03
12
0/
1,
0+
1)
1(
1'
1%
#170000
0"
0$
#171000
1"
1$
#172000
0"
0$
#173000
1"
1$
0c
1`
0^
1]
1[
1Y
0X
0W
1V
0Q
0O
1N
1M
0L
0I
1G
0D
0A
0?
0>
1=
1:
09
10
0,
1+
0)
0%
b101010110011000001001100011100110 g
#174000
0"
0$
#175000
1"
1$
#176000
0"
0$
#177000
1"
1$
1c
0`
1^
0]
0\
0N
0M
1L
0F
1C
1B
1A
1?
1>
0;
19
08
06
15
02
11
1/
1,
1*
1%
b0 g
#178000
0"
0$
#179000
1"
1$
#180000
0"
0$
#181000
1"
1$
0f
1d
1b
0a
1`
0_
1]
1\
0Y
0V
0U
0T
1P
1O
1I
0E
1D
1@
0?
0>
0=
1;
09
17
16
05
12
0-
1)
0%
b110101010101110011011011111011010 g
#182000
0"
0$
#183000
1"
1$
#184000
0"
0$
#185000
1"
1$
0&
1f
0e
0c
1a
0]
0[
0Z
1Y
1X
1V
1U
1T
1R
1N
0K
0I
0G
1E
0C
0A
0@
0:
07
15
13
01
0/
0,
0+
0*
0)
#186000
0"
0$
#187000
1"
1$
#188000
0"
0$
#189000
1"
1$
0d
1c
0a
1_
0^
1]
0\
1[
0Y
1W
0U
0R
1Q
0N
1J
1H
1G
0D
1A
1@
1>
1=
0;
19
17
05
00
1/
1,
1+
1*
1)
0(
0'
1%
b0 g
#190000
0"
0$
#191000
1"
1$
#192000
0"
0$
#193000
1"
1$
1&
0f
1e
1a
0`
0_
0]
1Z
1Y
1U
0T
0Q
0P
0O
1N
1M
0L
1K
0J
0H
0G
1D
1C
0@
0=
1;
09
18
07
06
03
11
0.
0+
0)
1'
#194000
0"
0$
#195000
1"
1$
#196000
0"
0$
#197000
1"
1$
0e
0c
0b
1`
1^
1]
0[
0Z
0X
0W
0V
0U
1T
1R
1P
1L
1J
1H
1F
0E
0B
0A
1?
0>
1=
0;
08
16
13
02
1.
1+
1(
0'
0%
b10111101000001010010010111101101 g
#198000
0"
0$
#199000
1"
1$
#200000
0"
0$
#201000
1"
1$
1f
1d
1b
0`
0]
1\
1Z
0Y
1X
1W
1U
0T
0S
1O
0N
0K
1I
0H
0F
0D
1B
1A
0?
1<
17
06
15
03
12
0/
0,
0+
0*
0(
1%
b0 g
#202000
0"
0$
#203000
1"
1$
#204000
0"
0$
#205000
1"
1$
0&
0f
0a
1_
0^
1]
0Z
1Y
0X
1V
1T
1Q
0P
1F
1>
19
18
16
01
10
1,
1'
#206000
0"
0$
#207000
1"
1$
#208000
0"
0$
#209000
1"
1$
1&
1e
0d
1c
0b
1`
0_
1Z
1X
0W
0V
0U
1S
1N
0M
0L
1K
0I
1G
1E
0C
0B
1@
1?
0>
0=
1;
1:
08
07
05
13
11
0.
1-
1*
1)
0'
#210000
0"
0$
#211000
1"
1$
#212000
0"
0$
#213000
1"
1$
0e
0c
1b
1a
0`
1_
0]
1[
0Y
0X
1W
1U
0T
0S
0R
1P
0N
1I
0G
0F
0E
1C
0@
1=
18
15
14
02
00
1/
0-
1(
1'
0%
b100101101100100100001101101011000 g
#214000
0"
0$
#215000
1"
1$
#216000
0"
0$
#217000
1"
1$
0&
1f
1e
1c
0b
1`
1^
0\
0[
0Z
0W
0U
1T
1S
0Q
1N
0K
0J
0I
1H
1G
1@
1>
0;
0:
09
08
17
04
03
0/
1.
1-
0,
0*
0)
0'
#218000
0"
0$
#219000
1"
1$
#220000
0"
0$
#221000
1"
1$
0f
0e
1d
0c
0a
0`
0^
1\
1Y
1W
1U
0S
1R
1Q
0N
1M
1L
1I
1B
0A
0?
0=
0<
1;
07
06
05
13
12
1/
0.
0-
1,
1+
0(
1'
#222000
0"
0$
#223000
1"
1$
#224000
0"
0$
#225000
1"
1$
1f
1a
1`
1^
1]
1[
1Z
0W
1V
0U
0R
0O
1N
0M
1K
0H
1F
0B
0>
18
16
03
10
1-
0,
0+
1*
0'
#226000
0"
0$
#227000
1"
1$
#228000
0"
0$
#229000
1"
1$
0f
1e
1b
0]
0\
0Z
0V
1R
0Q
0P
1O
1M
0L
0K
0F
1B
0@
1>
1<
0;
1:
19
06
15
00
0/
0-
1+
1)
1(
1'
1%
b0 g
#230000
0"
0$
#231000
1"
1$
#232000
0"
0$
#233000
1"
1$
1f
0b
0a
0`
1]
1\
0[
0Y
1X
1W
0T
1S
0R
1Q
0N
1K
1F
1D
0C
0B
1A
1@
0>
1=
0<
0:
17
16
05
13
1/
1.
1-
0*
0(
#234000
0"
0$
#235000
1"
1$
#236000
0"
0$
#237000
1"
1$
1&
0f
0d
1b
1a
0^
0]
0\
1Z
0X
0W
0S
1R
1P
1N
0M
1L
1J
0I
1E
1C
0@
0=
1;
09
08
07
15
14
03
10
0/
0-
1,
1*
0)
1(
0%
b101111011011001110001100011100001 g
#238000
0"
0$
#239000
1"
1$
#240000
0"
0$
#241000
1"
1$
1c
0a
0_
1[
0Z
1Y
1W
1V
1U
1T
1M
0L
0K
0J
1H
0E
1B
1>
1=
1<
1:
18
06
05
04
01
1/
0.
1-
0+
0*
1)
0(
0'
1%
b0 g
#242000
0"
0$
#243000
1"
1$
#244000
0"
0$
#245000
1"
1$
0&
0c
1`
1_
1^
1]
1X
0W
0V
0U
0T
0R
0Q
0N
0M
1J
1I
0H
0F
1E
0D
0C
0A
0>
0=
08
17
16
15
14
13
02
00
0/
1.
0-
0,
0)
1'
0%
#246000
0"
0$
#247000
1"
1$
#248000
0"
0$
#249000
1"
1$
0e
1d
1c
1a
0_
0]
1\
0Y
0X
1W
1V
1U
1Q
0P
0O
1N
1M
1L
1K
0J
0I
0G
1F
1A
1>
1=
0<
07
05
04
11
10
0.
1+
1*
#250000
0"
0$
#251000
1"
1$
#252000
0"
0$
#253000
1"
1$
1&
1f
0b
0a
0`
0^
1]
0\
0[
1X
1T
1S
1R
0Q
1P
0N
0M
1J
1H
0B
0A
1@
1?
0=
1<
0;
0:
19
18
17
06
01
00
1/
1.
1-
1,
0+
1(
0'
1%
#254000
0"
0$
#255000
1"
1$
#256000
0"
0$
#257000
1"
1$
0f
0d
0c
1b
1`
1_
1^
0]
1\
1Z
0U
0T
0S
1Q
1N
1I
0H
1G
0E
1D
1C
1A
0>
1=
0<
1;
1:
16
15
12
11
10
0*
1)
0(
1'
0%
b101100101011011011101000010111101 g
#258000
0"
0$
#259000
1"
1$
#260000
0"
0$
#261000
1"
1$
1f
1e
0b
0`
1]
1Y
1T
1S
0Q
0P
0N
0L
0K
0J
1H
1E
0@
1>
07
06
05
14
03
01
1+
1*
0)
0'
#262000
0"
0$
#263000
1"
1$
b11111111111100100111001100110010 g
#264000
0"
0$
#265000
1"
1$
0&
0e
1d
1b
1a
1`
0_
0]
1[
0Y
0T
1Q
1P
1O
1N
1L
1J
0I
0H
0F
0D
0C
1B
0?
0:
09
17
15
13
02
0/
0-
0,
0*
1'
#266000
0"
0$
#267000
1"
1$
#268000
0"
0$
#269000
1"
1$
1&
0f
1c
0b
0a
0`
1_
0^
1]
0\
1Y
0X
0W
1U
1T
0S
0R
0P
0O
0J
1F
1C
1?
0>
0;
19
08
05
03
12
11
1/
0.
1-
1,
1*
1(
1%
b0 g
#270000
0"
0$
#271000
1"
1$
#272000
0"
0$
#273000
1"
1$
0&
0d
0c
1^
0Z
0V
0Q
0N
1M
0L
1J
1I
0G
0E
1D
0C
0B
1@
0?
0=
1<
18
07
15
01
00
0,
0+
1)
0(
0'
#274000
0"
0$
#275000
1"
1$
#276000
0"
0$
#277000
1"
1$
1&
1e
1a
1`
0^
1\
1Z
0Y
1X
1W
1V
1S
1R
0J
0I
0D
0A
1?
1=
08
17
05
13
0/
0-
1,
1+
0*
1'
#278000
0"
0$
#279000
1"
1$
#280000
0"
0$
#281000
1"
1$
0&
1f
1c
1b
0a
0`
0_
1^
1Y
0V
0U
0R
1P
1O
1N
1J
1H
1G
0F
1E
1D
0=
1;
18
07
04
11
1.
1-
0+
1*
#282000
0"
0$
#283000
1"
1$
#284000
0"
0$
#285000
1"
1$
0f
1d
1a
1`
1_
0[
0Y
0X
1U
0S
0P
1K
0J
0G
0E
1B
0@
0?
0<
0;
1:
09
08
17
16
03
01
1/
0-
0,
0)
1(
#286000
0"
0$
#287000
1"
1$
#288000
0"
0$
#289000
1"
1$
1&
1f
0d
0_
0\
1Y
0W
0U
0T
1S
1Q
0O
0N
0M
1L
1J
1I
0D
0B
1A
1@
1>
0:
19
18
07
06
11
0/
1-
1)
0'
0%
b11101111010110001001010011011011 g
#290000
0"
0$
#291000
1"
1$
#292000
0"
0$
#293000
1"
1$
0f
1d
0b
1_
0^
0]
1\
1[
0Z
0Y
1W
1U
1T
0S
0Q
1O
1N
1M
0L
0K
0J
1G
1D
1C
1B
0@
1?
0>
1=
1;
1:
08
17
0.
1+
0*
#294000
0"
0$
#295000
1"
1$
b101001101101101110100011110101010 g
#296000
0"
0$
#297000
1"
1$
0c
1b
0_
1]
1Z
1Y
1X
0T
1P
0N
1K
1J
1E
0D
0C
0B
0?
1>
0=
1<
0;
0:
09
16
15
14
13
02
10
0(
1'
1%
b0 g
#298000
0"
0$
#299000
1"
1$
#300000
0"
0$
#301000
1"
1$
0d
1c
0b
1^
0]
0W
1V
0U
1T
1S
1R
0O
1N
0J
0I
0H
0E
1?
0<
19
18
05
04
03
1*
0)
1(
#302000
0"
0$
#303000
1"
1$
#304000
0"
0$
#305000
1"
1$
0e
1d
0c
1b
0a
0`
1_
0^
1]
0[
0Y
0X
1W
0V
1U
0S
1Q
0P
0N
0M
0K
1I
1H
0G
1F
1B
1@
0>
1<
09
08
07
01
00
1/
1.
0-
1)
0'
#306000
0"
0$
#307000
1"
1$
#308000
0"
0$
#309000
1"
1$
1c
0b
1a
1^
0]
1[
1Y
0W
1V
0U
0T
1P
1K
1J
0I
0H
1E
1D
1C
0@
0?
1>
1=
0<
1;
1:
19
18
17
06
13
12
0/
0.
1-
1,
1'
#310000
0"
0$
#311000
1"
1$
#312000
0"
0$
#313000
1"
1$
0&
1f
0d
1b
1`
0^
0\
0Z
1X
1T
1S
0Q
0P
1N
1L
0D
0C
0B
1@
1?
0>
0=
0;
09
16
15
14
10
1/
1.
0,
0*
0'
#314000
0"
0$
#315000
1"
1$
#316000
0"
0$
#317000
1"
1$
0f
1d
0c
0a
0_
1Z
0Y
0X
1W
0T
0R
1Q
1P
0L
0J
0F
0E
1D
0?
1>
1<
1;
08
05
02
00
0.
0-
1,
#318000
0"
0$
#319000
1"
1$
#320000
0"
0$
#321000
1"
1$
1&
1f
1c
0b
1a
0`
1_
1^
1]
0[
1Y
1U
1T
1R
0Q
1M
1L
1H
1G
1F
1E
1B
0@
0>
0<
0:
15
04
12
10
1.
0,
0%
b100111001001110110011101111100100 g
#322000
0"
0$
#323000
1"
1$
#324000
0"
0$
#325000
1"
1$
0&
0d
0c
1b
0a
0_
0^
1\
0Y
0W
0V
0U
0T
0R
1Q
0N
0M
0L
0K
0H
0G
0D
0B
1?
0;
1:
07
06
03
02
11
00
0.
1*
0)
0(
1'
1%
b0 g
#326000
0"
0$
#327000
1"
1$
#328000
0"
0$
#329000
1"
1$
1e
1c
0b
1`
1[
0Z
1Y
1X
1W
1V
1U
0S
0Q
1L
1H
0F
0E
1C
1=
1<
0:
19
18
14
01
10
0/
1,
0+
0*
1)
0%
#330000
0"
0$
#331000
1"
1$
#332000
0"
0$
#333000
1"
1$
1&
1d
0c
0`
1_
1^
0]
1Z
0Y
0W
1S
1Q
0P
1N
1J
1I
1D
0C
1@
1>
0<
1:
08
17
04
13
1.
1-
1+
1*
#334000
0"
0$
#335000
1"
1$
b100110100011101100001000101101011 g
#336000
0"
0$
#337000
1"
1$
0f
0e
0d
1a
1`
0_
0^
1]
0\
1Y
0X
1W
0U
0S
1P
0N
1K
0I
1F
1E
1C
1B
0@
0=
1;
0:
18
07
05
14
11
1/
0.
0-
0+
0*
0)
1%
b0 g
#338000
0"
0$
#339000
1"
1$
#340000
0"
0$
#341000
1"
1$
1f
1e
1d
1c
0a
1\
0[
0Z
0W
1T
1S
1R
0Q
1O
0K
0J
1I
0H
0E
09
08
17
04
12
01
00
0,
0'
0%
b100101011101011011000000001100 g
#342000
0"
0$
#343000
1"
1$
#344000
0"
0$
#345000
1"
1$
0&
0f
1a
0`
1_
0\
1[
0Y
1W
0V
0T
0S
0R
1Q
1N
1M
1K
1J
0F
1E
0D
0C
0B
0A
1@
0?
1=
1<
07
16
15
02
11
10
1-
1+
#346000
0"
0$
#347000
1"
1$
#348000
0"
0$
#349000
1"
1$
1&
1f
0d
1b
0_
1^
0]
0[
1Y
1X
1V
1S
1R
0O
0N
0I
1G
1F
1B
1A
0>
0=
0;
19
01
00
1.
0-
0+
1*
1)
1(
1'
#350000
0"
0$
#351000
1"
1$
b110010000000001010000010110101110 g
#352000
0"
0$
#353000
1"
1$
0&
1d
0a
1`
1_
1]
1\
1[
1Z
0Y
0W
0V
1T
0S
0R
0Q
1O
0M
0K
0J
1H
0F
0E
1D
0A
1?
1;
1:
09
17
05
12
1+
0*
#354000
0"
0$
#355000
1"
1$
#356000
0"
0$
#357000
1"
1$
1&
0e
0c
0b
0^
0\
1U
1S
1Q
0L
1J
0H
0G
1E
0B
1A
0@
0?
1>
1=
0<
0;
18
15
14
03
02
11
0/
1-
0+
1*
0)
0(
0'
1%
b0 g
#358000
0"
0$
#359000
1"
1$
#360000
0"
0$
#361000
1"
1$
0&
0f
0d
1b
1a
0`
0_
1^
0Z
1Y
1W
1V
0S
0Q
0P
0O
1K
0J
1H
1G
0D
1C
1@
08
07
06
13
1/
0.
1,
1(
1'
0%
#362000
0"
0$
#363000
1"
1$
#364000
0"
0$
#365000
1"
1$
1&
1d
1_
1\
1Z
0W
0T
1R
1L
1I
0H
0G
1F
0E
1D
1?
0=
1;
0:
19
18
17
16
12
1.
0,
1+
0(
1%
#366000
0"
0$
#367000
1"
1$
#368000
0"
0$
#369000
1"
1$
0&
1f
1e
1c
0b
1`
0^
0]
0\
0Y
0X
1T
1P
1O
1M
1J
0I
1E
0D
0C
1=
06
05
04
03
02
10
0-
0+
1)
1(
0%
#370000
0"
0$
#371000
1"
1$
#372000
0"
0$
#373000
1"
1$
1&
0f
0e
0d
0c
0_
1\
0[
0Z
1W
0U
0T
1Q
1N
0L
0J
1H
0F
0E
0A
0@
0>
1<
1:
09
07
16
15
14
0.
1,
0*
0'
1%
#374000
0"
0$
#375000
1"
1$
